{
  "count": 61412,
  "next": "https://api.rawg.io/api/publishers?key=5ef35efd15444b7bb1cc23247e9f3297&page=2",
  "previous": null,
  "results": [
    {
      "id": 354,
      "name": "Electronic Arts",
      "slug": "electronic-arts",
      "games_count": 1303,
      "image_background": "https://media.rawg.io/media/games/476/476178ef18ab0534771d099f51cdc694.jpg",
      "games": [
        {
          "id": 4200,
          "slug": "portal-2",
          "name": "Portal 2",
          "added": 17068
        },
        {
          "id": 12020,
          "slug": "left-4-dead-2",
          "name": "Left 4 Dead 2",
          "added": 14474
        },
        {
          "id": 290856,
          "slug": "apex-legends",
          "name": "Apex Legends",
          "added": 9591
        },
        {
          "id": 4252,
          "slug": "mirrors-edge",
          "name": "Mirror's Edge",
          "added": 9465
        },
        {
          "id": 4570,
          "slug": "dead-space",
          "name": "Dead Space (2008)",
          "added": 8473
        },
        {
          "id": 4806,
          "slug": "mass-effect-2",
          "name": "Mass Effect 2",
          "added": 8343
        }
      ]
    },
    {
      "id": 308,
      "name": "Square Enix",
      "slug": "square-enix",
      "games_count": 568,
      "image_background": "https://media.rawg.io/media/games/562/562553814dd54e001a541e4ee83a591c.jpg",
      "games": [
        {
          "id": 5286,
          "slug": "tomb-raider",
          "name": "Tomb Raider (2013)",
          "added": 14955
        },
        {
          "id": 3439,
          "slug": "life-is-strange-episode-1-2",
          "name": "Life is Strange",
          "added": 13708
        },
        {
          "id": 7689,
          "slug": "rise-of-the-tomb-raider",
          "name": "Rise of the Tomb Raider",
          "added": 10587
        },
        {
          "id": 10035,
          "slug": "hitman",
          "name": "Hitman",
          "added": 9634
        },
        {
          "id": 1447,
          "slug": "deus-ex-mankind-divided",
          "name": "Deus Ex: Mankind Divided",
          "added": 9272
        },
        {
          "id": 5583,
          "slug": "hitman-absolution",
          "name": "Hitman: Absolution",
          "added": 8356
        }
      ]
    },
    {
      "id": 20987,
      "name": "Microsoft Studios",
      "slug": "microsoft-studios",
      "games_count": 493,
      "image_background": "https://media.rawg.io/media/games/b45/b45575f34285f2c4479c9a5f719d972e.jpg",
      "games": [
        {
          "id": 1030,
          "slug": "limbo",
          "name": "Limbo",
          "added": 12264
        },
        {
          "id": 7689,
          "slug": "rise-of-the-tomb-raider",
          "name": "Rise of the Tomb Raider",
          "added": 10587
        },
        {
          "id": 19487,
          "slug": "alan-wake",
          "name": "Alan Wake",
          "added": 9019
        },
        {
          "id": 3144,
          "slug": "super-meat-boy",
          "name": "Super Meat Boy",
          "added": 8555
        },
        {
          "id": 4166,
          "slug": "mass-effect",
          "name": "Mass Effect",
          "added": 8006
        },
        {
          "id": 5525,
          "slug": "brutal-legend",
          "name": "Brutal Legend",
          "added": 7498
        }
      ]
    },
    {
      "id": 918,
      "name": "Ubisoft Entertainment",
      "slug": "ubisoft-entertainment",
      "games_count": 1053,
      "image_background": "https://media.rawg.io/media/games/193/19390fa5e75e9048b22c9a736cf9992f.jpg",
      "games": [
        {
          "id": 4161,
          "slug": "far-cry-3",
          "name": "Far Cry 3",
          "added": 9108
        },
        {
          "id": 362,
          "slug": "for-honor",
          "name": "For Honor",
          "added": 8446
        },
        {
          "id": 3841,
          "slug": "assassins-creed-iv-black-flag",
          "name": "Assassin’s Creed IV: Black Flag",
          "added": 8384
        },
        {
          "id": 3687,
          "slug": "watch-dogs",
          "name": "Watch Dogs",
          "added": 7220
        },
        {
          "id": 23585,
          "slug": "far-cry-5",
          "name": "Far Cry 5",
          "added": 7167
        },
        {
          "id": 28568,
          "slug": "assassins-creed-ii",
          "name": "Assassin's Creed II",
          "added": 7063
        }
      ]
    },
    {
      "id": 3408,
      "name": "SEGA",
      "slug": "sega-2",
      "games_count": 1214,
      "image_background": "https://media.rawg.io/media/games/fd7/fd794a9f0ffe816038d981b3acc3eec9.jpg",
      "games": [
        {
          "id": 10243,
          "slug": "company-of-heroes-2",
          "name": "Company of Heroes 2",
          "added": 8363
        },
        {
          "id": 28179,
          "slug": "sega-mega-drive-and-genesis-classics",
          "name": "SEGA Mega Drive and Genesis Classics",
          "added": 7274
        },
        {
          "id": 3556,
          "slug": "alien-isolation",
          "name": "Alien: Isolation",
          "added": 7075
        },
        {
          "id": 10560,
          "slug": "total-war-shogun-2",
          "name": "Total War: SHOGUN 2",
          "added": 6372
        },
        {
          "id": 492,
          "slug": "yakuza-0",
          "name": "Yakuza 0",
          "added": 5577
        },
        {
          "id": 4101,
          "slug": "bayonetta",
          "name": "Bayonetta",
          "added": 5364
        }
      ]
    },
    {
      "id": 358,
      "name": "2K Games",
      "slug": "2k-games",
      "games_count": 205,
      "image_background": "https://media.rawg.io/media/games/615/61503312a95d451198d80d9bae275f79.jpg",
      "games": [
        {
          "id": 4062,
          "slug": "bioshock-infinite",
          "name": "BioShock Infinite",
          "added": 13882
        },
        {
          "id": 802,
          "slug": "borderlands-2",
          "name": "Borderlands 2",
          "added": 13708
        },
        {
          "id": 4286,
          "slug": "bioshock",
          "name": "BioShock",
          "added": 12630
        },
        {
          "id": 4427,
          "slug": "bioshock-2",
          "name": "BioShock 2",
          "added": 9770
        },
        {
          "id": 4332,
          "slug": "spec-ops-the-line",
          "name": "Spec Ops: The Line",
          "added": 9142
        },
        {
          "id": 10754,
          "slug": "bioshock-remastered",
          "name": "BioShock Remastered",
          "added": 9129
        }
      ]
    },
    {
      "id": 339,
      "name": "Bethesda Softworks",
      "slug": "bethesda-softworks",
      "games_count": 168,
      "image_background": "https://media.rawg.io/media/games/218/218167ff4011acc825c844d0070940a0.jpg",
      "games": [
        {
          "id": 5679,
          "slug": "the-elder-scrolls-v-skyrim",
          "name": "The Elder Scrolls V: Skyrim",
          "added": 14375
        },
        {
          "id": 2454,
          "slug": "doom",
          "name": "DOOM (2016)",
          "added": 12067
        },
        {
          "id": 3070,
          "slug": "fallout-4",
          "name": "Fallout 4",
          "added": 12053
        },
        {
          "id": 3696,
          "slug": "wolfenstein-the-new-order",
          "name": "Wolfenstein: The New Order",
          "added": 8839
        },
        {
          "id": 39,
          "slug": "prey",
          "name": "Prey",
          "added": 8619
        },
        {
          "id": 5563,
          "slug": "fallout-new-vegas",
          "name": "Fallout: New Vegas",
          "added": 8399
        }
      ]
    },
    {
      "id": 3399,
      "name": "Valve",
      "slug": "valve",
      "games_count": 45,
      "image_background": "https://media.rawg.io/media/games/ccc/ccc0d5396e3331d58e5eb58a6a1fa1b7.jpg",
      "games": [
        {
          "id": 4200,
          "slug": "portal-2",
          "name": "Portal 2",
          "added": 17068
        },
        {
          "id": 4291,
          "slug": "counter-strike-global-offensive",
          "name": "Counter-Strike: Global Offensive",
          "added": 14756
        },
        {
          "id": 12020,
          "slug": "left-4-dead-2",
          "name": "Left 4 Dead 2",
          "added": 14474
        },
        {
          "id": 13536,
          "slug": "portal",
          "name": "Portal",
          "added": 14501
        },
        {
          "id": 13537,
          "slug": "half-life-2",
          "name": "Half-Life 2",
          "added": 12956
        },
        {
          "id": 11859,
          "slug": "team-fortress-2",
          "name": "Team Fortress 2",
          "added": 11766
        }
      ]
    },
    {
      "id": 2150,
      "name": "Capcom",
      "slug": "capcom",
      "games_count": 588,
      "image_background": "https://media.rawg.io/media/games/36d/36dbcc51d45ae1105c7cb744a5fa6e2a.jpg",
      "games": [
        {
          "id": 4459,
          "slug": "grand-theft-auto-iv",
          "name": "Grand Theft Auto IV",
          "added": 11311
        },
        {
          "id": 416,
          "slug": "grand-theft-auto-san-andreas",
          "name": "Grand Theft Auto: San Andreas",
          "added": 10000
        },
        {
          "id": 430,
          "slug": "grand-theft-auto-vice-city",
          "name": "Grand Theft Auto: Vice City",
          "added": 8314
        },
        {
          "id": 46889,
          "slug": "monster-hunter-world-2",
          "name": "Monster Hunter: World",
          "added": 7602
        },
        {
          "id": 480,
          "slug": "resident-evil-7-biohazard",
          "name": "Resident Evil 7: Biohazard",
          "added": 7359
        },
        {
          "id": 13461,
          "slug": "resident-evil-5-biohazard-5",
          "name": "Resident Evil 5",
          "added": 6573
        }
      ]
    },
    {
      "id": 10212,
      "name": "Sony Computer Entertainment",
      "slug": "sony-computer-entertainment",
      "games_count": 472,
      "image_background": "https://media.rawg.io/media/games/0af/0af85e8edddfa55368e47c539914a220.jpg",
      "games": [
        {
          "id": 278,
          "slug": "horizon-zero-dawn",
          "name": "Horizon Zero Dawn",
          "added": 11506
        },
        {
          "id": 58134,
          "slug": "marvels-spider-man",
          "name": "Marvel's Spider-Man",
          "added": 9112
        },
        {
          "id": 29177,
          "slug": "detroit-become-human",
          "name": "Detroit: Become Human",
          "added": 8754
        },
        {
          "id": 2462,
          "slug": "uncharted-4-a-thiefs-end",
          "name": "Uncharted 4: A Thief’s End",
          "added": 8714
        },
        {
          "id": 3636,
          "slug": "the-last-of-us-remastered",
          "name": "The Last Of Us Remastered",
          "added": 8362
        },
        {
          "id": 3254,
          "slug": "journey",
          "name": "Journey",
          "added": 7780
        }
      ]
    }
  ]
}
